Batting to Win
…
This graph shows us the relationship between players career batting average and home runs hit; and although there is a positive relationship between the two, many batters with career averages over or around .300 (what is considered a great batting average) hit less than 200 career home runs. On the other hand, a good majority of players who hit more than 200 career home runs have batting averages under .300.

Data Used

We sourced our data from the Lahman Baseball Database. Sean Lahman, the creator of the database is an investigative journalist, a sports column writer, author, and Data Projects Manager for the Society of American Baseball Research. The database is composed of 26 tables that each consist of unique baseball data ranging from baseball and pitching statistics for individual players, to salary information, and postseason results. The package is available in R.

Batting Table

From the database, we worked with data found in the Batting Table, which contains regular season batting statistics for individual players from 1871 to 2020.

## # A tibble: 108,789 x 22
##    playerID  yearID stint teamID lgID      G    AB     R     H   X2B   X3B    HR
##    <chr>      <int> <int> <fct>  <fct> <int> <int> <int> <int> <int> <int> <int>
##  1 abercda01   1871     1 TRO    NA        1     4     0     0     0     0     0
##  2 addybo01    1871     1 RC1    NA       25   118    30    32     6     0     0
##  3 allisar01   1871     1 CL1    NA       29   137    28    40     4     5     0
##  4 allisdo01   1871     1 WS3    NA       27   133    28    44    10     2     2
##  5 ansonca01   1871     1 RC1    NA       25   120    29    39    11     3     0
##  6 armstbo01   1871     1 FW1    NA       12    49     9    11     2     1     0
##  7 barkeal01   1871     1 RC1    NA        1     4     0     1     0     0     0
##  8 barnero01   1871     1 BS1    NA       31   157    66    63    10     9     0
##  9 barrebi01   1871     1 FW1    NA        1     5     1     1     1     0     0
## 10 barrofr01   1871     1 BS1    NA       18    86    13    13     2     1     0
## # ... with 108,779 more rows, and 10 more variables: RBI <int>, SB <int>,
## #   CS <int>, BB <int>, SO <int>, IBB <int>, HBP <int>, SH <int>, SF <int>,
## #   GIDP <int>

BattingPost Table

The BattingPost table, contains individual players batting statistics for every different playoff round played between 1884 and 2020.

## # A tibble: 15,460 x 22
##    yearID round playerID  teamID lgID      G    AB     R     H   X2B   X3B    HR
##     <int> <chr> <chr>     <fct>  <fct> <int> <int> <int> <int> <int> <int> <int>
##  1   1884 WS    becanbu01 NY4    AA        1     2     0     1     0     0     0
##  2   1884 WS    bradyst01 NY4    AA        3    10     1     0     0     0     0
##  3   1884 WS    carrocl01 PRO    NL        3    10     2     1     0     0     0
##  4   1884 WS    dennyje01 PRO    NL        3     9     3     4     0     1     1
##  5   1884 WS    esterdu01 NY4    AA        3    10     0     3     1     0     0
##  6   1884 WS    farreja02 PRO    NL        3     9     3     4     2     0     0
##  7   1884 WS    forstto01 NY4    AA        1     3     0     0     0     0     0
##  8   1884 WS    gilliba01 PRO    NL        3     9     3     4     2     0     0
##  9   1884 WS    hinespa01 PRO    NL        3     8     5     2     0     0     0
## 10   1884 WS    irwinar01 PRO    NL        3     9     3     2     0     1     0
## # ... with 15,450 more rows, and 10 more variables: RBI <int>, SB <int>,
## #   CS <int>, BB <int>, SO <int>, IBB <int>, HBP <int>, SH <int>, SF <int>,
## #   GIDP <int>

SeriesPost Table

Finally, we also used the SeriesPost table which contains data regarding playoff round results.

## # A tibble: 358 x 9
##    yearID round teamIDwinner lgIDwinner teamIDloser lgIDloser  wins losses  ties
##     <int> <chr> <fct>        <fct>      <fct>       <fct>     <int>  <int> <int>
##  1   1884 WS    PRO          NL         NY4         AA            3      0     0
##  2   1885 WS    CHN          NL         SL4         AA            3      3     1
##  3   1886 WS    SL4          AA         CHN         NL            4      2     0
##  4   1887 WS    DTN          NL         SL4         AA           10      5     0
##  5   1888 WS    NY1          NL         SL4         AA            6      4     0
##  6   1889 WS    NY1          NL         BR3         AA            6      3     0
##  7   1890 WS    BRO          NL         LS2         AA            3      3     1
##  8   1892 CS    BSN          NL         CL4         NL            5      0     1
##  9   1903 WS    BOS          AL         PIT         NL            5      3     0
## 10   1905 WS    NY1          NL         PHA         AL            4      1     0
## # ... with 348 more rows

Data Cleaning/Tidying

Our data cleaning and tidying consisted, first of filtering all our data for only data from starting year 1903. We also added batting average columns (there is no batting average statistic in the Batting or BattingPost table), and grouped all our observations by yearID, and teamID to get team batting information for every season. For the SeriesPost table we filtered out all observations that werent World Series Results, added a Won/Lost column, and finally we merged the regular season and post season batting data to the World Series Results.

We ended with 3: Regular Season Batting, World Series Batting, and Regular/World Series Batting with series results.

RegSeason_Batting Table

Includes regular season team batting averages and total home runs hit for every year and team from 1903-2020.

## # A tibble: 2,524 x 6
##    yearID teamID lgID  Total_Reg_HR Team_Reg_HR_AVG Team_Reg_AVG
##     <int> <fct>  <fct>        <int>           <dbl>        <dbl>
##  1   1903 BOS    AL              48        0.00650         0.265
##  2   1903 BRO    NL              15        0.00307         0.225
##  3   1903 BSN    NL              25        0.00449         0.227
##  4   1903 CHA    AL              14        0.00191         0.231
##  5   1903 CHN    NL               9        0.000715        0.198
##  6   1903 CIN    NL              28        0.00223         0.237
##  7   1903 CLE    AL              31        0.00248         0.185
##  8   1903 DET    AL              12        0.00128         0.224
##  9   1903 NY1    NL              20        0.00250         0.226
## 10   1903 NYA    AL              18        0.00333         0.187
## # ... with 2,514 more rows

WS_Batting Table

Includes World Series team batting averages and total home runs hit for every year and team from 1903-2020.

## # A tibble: 232 x 8
##    yearID teamID lgID  Total_WS_HR Team_WS_HR_AVG Team_WS_AVG Series_Length
##     <int> <fct>  <fct>       <int>          <dbl>       <dbl>         <int>
##  1   1903 BOS    AL              2        0.00490       0.195             8
##  2   1903 PIT    NL              1        0.00238       0.190             8
##  3   1905 NY1    NL              0        0             0.183             5
##  4   1905 PHA    AL              0        0             0.128             5
##  5   1906 CHA    AL              0        0             0.131             6
##  6   1906 CHN    NL              0        0             0.153             6
##  7   1907 CHN    NL              0        0             0.193             4
##  8   1907 DET    AL              0        0             0.186             4
##  9   1908 CHN    NL              1        0.00405       0.216             5
## 10   1908 DET    AL              0        0             0.198             5
## # ... with 222 more rows, and 1 more variable: `Won/Lost` <chr>

Reg_WS_Batting Table

Includes regular season/World Series team batting averages and total home runs hit only for teams that made the World Series, as well as whether the team won or lost the series.

## # A tibble: 232 x 11
##    yearID teamID lgID  Total_WS_HR Team_WS_HR_AVG Team_WS_AVG Series_Length
##     <int> <fct>  <fct>       <int>          <dbl>       <dbl>         <int>
##  1   1903 BOS    AL              2        0.00490       0.195             8
##  2   1903 PIT    NL              1        0.00238       0.190             8
##  3   1905 NY1    NL              0        0             0.183             5
##  4   1905 PHA    AL              0        0             0.128             5
##  5   1906 CHA    AL              0        0             0.131             6
##  6   1906 CHN    NL              0        0             0.153             6
##  7   1907 CHN    NL              0        0             0.193             4
##  8   1907 DET    AL              0        0             0.186             4
##  9   1908 CHN    NL              1        0.00405       0.216             5
## 10   1908 DET    AL              0        0             0.198             5
## # ... with 222 more rows, and 4 more variables: `Won/Lost` <chr>,
## #   Total_Reg_HR <int>, Team_Reg_HR_AVG <dbl>, Team_Reg_AVG <dbl>
…
